\relax 
\providecommand\hyper@newdestlabel[2]{}
\providecommand\HyperFirstAtBeginDocument{\AtBeginDocument}
\HyperFirstAtBeginDocument{\ifx\hyper@anchor\@undefined
\global\let\oldcontentsline\contentsline
\gdef\contentsline#1#2#3#4{\oldcontentsline{#1}{#2}{#3}}
\global\let\oldnewlabel\newlabel
\gdef\newlabel#1#2{\newlabelxx{#1}#2}
\gdef\newlabelxx#1#2#3#4#5#6{\oldnewlabel{#1}{{#2}{#3}}}
\AtEndDocument{\ifx\hyper@anchor\@undefined
\let\contentsline\oldcontentsline
\let\newlabel\oldnewlabel
\fi}
\fi}
\global\let\hyper@last\relax 
\gdef\HyperFirstAtBeginDocument#1{#1}
\providecommand\HyField@AuxAddToFields[1]{}
\providecommand\HyField@AuxAddToCoFields[2]{}
\@writefile{toc}{\contentsline {section}{\numberline {I.}The Study of Logical Systems}{1}{section.1}\protected@file@percent }
\@writefile{toc}{\contentsline {subsection}{\numberline {A.}Metalanguage and Object Language}{1}{subsection.1.1}\protected@file@percent }
\@writefile{toc}{\contentsline {subsubsection}{\numberline {1.}The logic of the metalanguage}{1}{subsubsection.1.1.1}\protected@file@percent }
\@writefile{toc}{\contentsline {subsubsection}{\numberline {2.}Metalinguistic variables}{1}{subsubsection.1.1.2}\protected@file@percent }
\@writefile{toc}{\contentsline {section}{\numberline {II.}First-Order Theories: Syntax}{2}{section.2}\protected@file@percent }
\@writefile{toc}{\contentsline {section}{\numberline {III.}Deduction in First-Order Theories}{3}{section.3}\protected@file@percent }
\@writefile{toc}{\contentsline {section}{\numberline {IV.}Formal Semantics and Truth for First-Order Predicate Logic}{6}{section.4}\protected@file@percent }
\@writefile{toc}{\contentsline {section}{\numberline {V.}Some results covered in Mathematical Logic I}{7}{section.5}\protected@file@percent }
\@writefile{toc}{\contentsline {section}{\numberline {VI.}Theories with Identity/Equality}{7}{section.6}\protected@file@percent }
\@writefile{toc}{\contentsline {section}{\numberline {VII.}Variable-Binding Term Operators (vbtos)}{8}{section.7}\protected@file@percent }
\@writefile{toc}{\contentsline {subsection}{\numberline {A.}Introduction}{8}{subsection.7.1}\protected@file@percent }
\@writefile{toc}{\contentsline {subsection}{\numberline {B.}Semantics for vbtos}{9}{subsection.7.2}\protected@file@percent }
\@writefile{toc}{\contentsline {subsection}{\numberline {C.}Deduction for vbtos}{9}{subsection.7.3}\protected@file@percent }
\@writefile{toc}{\contentsline {section}{\numberline {VIII.}First-Order Peano Arithmetic}{9}{section.8}\protected@file@percent }
\@writefile{toc}{\contentsline {section}{\numberline {IX.}System F}{10}{section.9}\protected@file@percent }
\@writefile{toc}{\contentsline {subsection}{\numberline {A.}Frege and Hatcher's System F}{10}{subsection.9.1}\protected@file@percent }
\@writefile{toc}{\contentsline {subsection}{\numberline {B.}Syntax of F}{11}{subsection.9.2}\protected@file@percent }
\@writefile{toc}{\contentsline {subsection}{\numberline {C.}Axioms of F}{11}{subsection.9.3}\protected@file@percent }
\@writefile{toc}{\contentsline {subsection}{\numberline {D.}Some set-theoretic notions}{11}{subsection.9.4}\protected@file@percent }
\@writefile{toc}{\contentsline {subsection}{\numberline {E.}Some mathematical notions}{12}{subsection.9.5}\protected@file@percent }
\@writefile{toc}{\contentsline {subsection}{\numberline {F.}To Infinity and Beyond}{15}{subsection.9.6}\protected@file@percent }
\@writefile{toc}{\contentsline {subsection}{\numberline {G.}Russell's Paradox}{20}{subsection.9.7}\protected@file@percent }
\@writefile{toc}{\contentsline {section}{\numberline {X.}The Historical Frege/System GG}{21}{section.10}\protected@file@percent }
\@writefile{toc}{\contentsline {subsection}{\numberline {A.}Introduction}{21}{subsection.10.1}\protected@file@percent }
\@writefile{toc}{\contentsline {subsection}{\numberline {B.}Primitive Function Signs and their Intended Interpretations}{21}{subsection.10.2}\protected@file@percent }
\@writefile{toc}{\contentsline {subsection}{\numberline {C.}Axioms and Rules of GG}{21}{subsection.10.3}\protected@file@percent }
\@writefile{toc}{\contentsline {section}{\numberline {XI.}Type-Theory Generally}{23}{section.11}\protected@file@percent }
\@writefile{toc}{\contentsline {section}{\numberline {XII.}The System ST (Simple Types)}{23}{section.12}\protected@file@percent }
\@writefile{toc}{\contentsline {subsection}{\numberline {A.}Syntax}{23}{subsection.12.1}\protected@file@percent }
\@writefile{toc}{\contentsline {subsection}{\numberline {B.}Axiomatics}{24}{subsection.12.2}\protected@file@percent }
\@writefile{toc}{\contentsline {subsection}{\numberline {C.}Basic Results}{24}{subsection.12.3}\protected@file@percent }
\@writefile{toc}{\contentsline {subsection}{\numberline {D.}Development of Mathematics}{25}{subsection.12.4}\protected@file@percent }
\@writefile{toc}{\contentsline {subsection}{\numberline {E.}Evaluation}{29}{subsection.12.5}\protected@file@percent }
\@writefile{toc}{\contentsline {section}{\numberline {XIII.}Higher-Order Simple Type Theories\\ (HOSTs)}{29}{section.13}\protected@file@percent }
\@writefile{toc}{\contentsline {subsection}{\numberline {A.}Syntax}{29}{subsection.13.1}\protected@file@percent }
\@writefile{toc}{\contentsline {subsection}{\numberline {B.}Formulation}{30}{subsection.13.2}\protected@file@percent }
\@writefile{toc}{\contentsline {subsection}{\numberline {C.}Doing without (Ext) or (Inf)}{31}{subsection.13.3}\protected@file@percent }
\@writefile{toc}{\contentsline {subsection}{\numberline {D.}Some Philosophical Issues Revisited}{32}{subsection.13.4}\protected@file@percent }
\@writefile{toc}{\contentsline {section}{\numberline {XIV.}Ramified Type Theory}{32}{section.14}\protected@file@percent }
\@writefile{toc}{\contentsline {section}{\numberline {XV.}Meta-theory for Higher-Order Logic}{34}{section.15}\protected@file@percent }
\@writefile{toc}{\contentsline {subsection}{\numberline {A.}Standard Semantics}{34}{subsection.15.1}\protected@file@percent }
\@writefile{toc}{\contentsline {subsection}{\numberline {B.}Incompletess of Standard Semantics}{35}{subsection.15.2}\protected@file@percent }
\@writefile{toc}{\contentsline {subsection}{\numberline {C.}Henkin Semantics}{36}{subsection.15.3}\protected@file@percent }
\@writefile{toc}{\contentsline {section}{\numberline {XVI.}Zermelo and Zermelo-Fraenkel Set\\ Theories (Systems Z, ZF)}{37}{section.16}\protected@file@percent }
\@writefile{toc}{\contentsline {subsection}{\numberline {A.}Syntax}{37}{subsection.16.1}\protected@file@percent }
\@writefile{toc}{\contentsline {subsection}{\numberline {B.}Formulation of Z}{38}{subsection.16.2}\protected@file@percent }
\@writefile{toc}{\contentsline {subsection}{\numberline {C.}Cardinal and Ordinal Numbers in Z(F)}{40}{subsection.16.3}\protected@file@percent }
\newlabel{rels}{{C.}{40}{Ordinal numbers}{section*.13}{}}
\@writefile{toc}{\contentsline {subsection}{\numberline {D.}Natural Numbers in ZF}{41}{subsection.16.4}\protected@file@percent }
\@writefile{toc}{\contentsline {subsection}{\numberline {E.}Relations, Functions and Recursion in ZF}{46}{subsection.16.5}\protected@file@percent }
\@writefile{toc}{\contentsline {subsection}{\numberline {F.}Infinite Ordinals}{47}{subsection.16.6}\protected@file@percent }
\@writefile{toc}{\contentsline {subsection}{\numberline {G.}Cardinal Numbers and the Axiom of Choice}{47}{subsection.16.7}\protected@file@percent }
\@writefile{toc}{\contentsline {subsection}{\numberline {H.}Cantor's Theorem and the Continuum Hypothesis}{50}{subsection.16.8}\protected@file@percent }
\@writefile{toc}{\contentsline {section}{\numberline {XVII.}von Neumann/Bernays/G\"odel (NBG)\\ and Mostowski/Kelley/Morse (MKM)\\ Set Theories}{51}{section.17}\protected@file@percent }
\@writefile{toc}{\contentsline {subsection}{\numberline {A.}Syntax}{51}{subsection.17.1}\protected@file@percent }
\@writefile{toc}{\contentsline {subsection}{\numberline {B.}Formulation}{52}{subsection.17.2}\protected@file@percent }
\@writefile{toc}{\contentsline {subsection}{\numberline {C.}Development of Mathematics}{53}{subsection.17.3}\protected@file@percent }
\@writefile{toc}{\contentsline {section}{\numberline {XVIII.}Set Theory with Urelements}{53}{section.18}\protected@file@percent }
\@writefile{toc}{\contentsline {subsection}{\numberline {A.}The Systems ZU/ZFU}{54}{subsection.18.1}\protected@file@percent }
\@writefile{toc}{\contentsline {section}{\numberline {XIX.}Relative Consistency}{55}{section.19}\protected@file@percent }
\@writefile{toc}{\contentsline {section}{\numberline {XX.}Quine's System NF}{57}{section.20}\protected@file@percent }
\@writefile{toc}{\contentsline {subsection}{\numberline {A.}Background}{57}{subsection.20.1}\protected@file@percent }
\@writefile{toc}{\contentsline {subsection}{\numberline {B.}Syntax of NF}{58}{subsection.20.2}\protected@file@percent }
\@writefile{toc}{\contentsline {subsection}{\numberline {C.}Axiomatization}{59}{subsection.20.3}\protected@file@percent }
\@writefile{toc}{\contentsline {subsection}{\numberline {D.}Development of Mathematics}{62}{subsection.20.4}\protected@file@percent }
\@writefile{toc}{\contentsline {subsection}{\numberline {E.}Cantorian and Non-Cantorian Sets in NF}{64}{subsection.20.5}\protected@file@percent }
\@writefile{toc}{\contentsline {subsection}{\numberline {F.}The Failure of the Axiom of Choice in NF}{65}{subsection.20.6}\protected@file@percent }
\@writefile{toc}{\contentsline {section}{\numberline {XXI.}Variants of NF (ML, NFU)}{65}{section.21}\protected@file@percent }
\@writefile{toc}{\contentsline {subsection}{\numberline {A.}Quine's ML}{65}{subsection.21.1}\protected@file@percent }
\@writefile{toc}{\contentsline {subsection}{\numberline {B.}Jensen's System NFU}{66}{subsection.21.2}\protected@file@percent }
\@writefile{toc}{\contentsline {section}{\numberline {XXII.}Cocchiarella's Higher-Order Variants}{67}{section.22}\protected@file@percent }
\@writefile{toc}{\contentsline {subsection}{\numberline {A.}Background}{67}{subsection.22.1}\protected@file@percent }
\@writefile{toc}{\contentsline {subsection}{\numberline {B.}The System of Homogeneous Simple Types ($\lambda $-HST*): Syntax}{69}{subsection.22.2}\protected@file@percent }
\@writefile{toc}{\contentsline {subsection}{\numberline {C.}HST$^*_\lambda $: Formulation}{71}{subsection.22.3}\protected@file@percent }
\@writefile{toc}{\contentsline {section}{\numberline {XXIII.}Hume's Law, Frege's Theorem and Frege Arithmetic}{72}{section.23}\protected@file@percent }
\@writefile{toc}{\contentsline {subsection}{\numberline {A.}Review}{72}{subsection.23.1}\protected@file@percent }
\@writefile{toc}{\contentsline {subsection}{\numberline {B.}Second-order Logic}{72}{subsection.23.2}\protected@file@percent }
\@writefile{toc}{\contentsline {subsection}{\numberline {C.}Frege Arithmetic}{73}{subsection.23.3}\protected@file@percent }
\@writefile{toc}{\contentsline {subsection}{\numberline {D.}Frege's Theorem}{74}{subsection.23.4}\protected@file@percent }
\@writefile{toc}{\contentsline {subsection}{\numberline {E.}Philosophical Reflections on Frege's Theorem}{81}{subsection.23.5}\protected@file@percent }
\@writefile{toc}{\contentsline {section}{\numberline {XXIV.}Boolos's (New V) and Others}{82}{section.24}\protected@file@percent }
\@writefile{toc}{\contentsline {section}{\numberline {XXV.}Paraconsistent Foundations}{83}{section.25}\protected@file@percent }
\@writefile{toc}{\contentsline {subsection}{\numberline {A.}Paraconsistent Logic}{83}{subsection.25.1}\protected@file@percent }
\@writefile{toc}{\contentsline {subsection}{\numberline {B.}Paraconsistent Set Theory: Weak or Strong?}{84}{subsection.25.2}\protected@file@percent }
\@writefile{toc}{\contentsline {subsection}{\numberline {C.}An Example Paraconsistent Set Theory}{85}{subsection.25.3}\protected@file@percent }
\@writefile{toc}{\contentsline {section}{\numberline {XXVI.}Plural Logic}{87}{section.26}\protected@file@percent }
\@writefile{toc}{\contentsline {subsection}{\numberline {A.}Basics}{87}{subsection.26.1}\protected@file@percent }
\@writefile{toc}{\contentsline {subsection}{\numberline {B.}Interpreting Second-Order Logic/Type-theory}{87}{subsection.26.2}\protected@file@percent }
\@writefile{toc}{\contentsline {subsection}{\numberline {C.}Boccuni's PG}{88}{subsection.26.3}\protected@file@percent }
